congruent	incongruent	Stroop_ER
763.95	910.407407407407	6
869.055555555556	905.964285714286	8
959.941176470588	1016.34782608696	18
870.444444444444	951.655172413793	4
682.4	802.758620689655	2
1003.78947368421	1052.62068965517	2
868.722222222222	922.352941176471	28
1001.42105263158	1110.35714285714	6
1042.4	1124.45454545455	22
1102.61111111111	1212.17391304348	14
880.944444444444	1070.2962962963	10
917.7	914.607142857143	4
674.611111111111	772.827586206897	6
887.421052631579	997.285714285714	6
1062.72222222222	1069.42307692308	12
791.833333333333	905.047619047619	22
823.263157894737	961.961538461538	8
930.15	1062.41379310345	2
942.947368421053	1066.71428571429	2
923.45	990.733333333333	0
656.111111111111	793.363636363636	18
630.45	755.961538461538	8
1171.8	1168.91666666667	40
1081.125	NA	68
759.722222222222	1002.08	12
825.15	894.310344827586	2
848.95	1044.75862068966	2
1060.33333333333	1105.25	16
665.714285714286	834.761904761905	30
727.7	887.866666666667	0
885.55	1075.44444444444	6
783.8	853.5	0
943	1003.44	10
976.5	1034.86206896552	0
864.117647058824	993.083333333333	16
944.944444444444	1009.16	10
1123.31578947368	1144.57142857143	4
842.8	880.407407407407	6
908.1875	1146.59259259259	10
958.294117647059	1123.19047619048	22
938.736842105263	1039.13793103448	2
1121	1107.8	84
812.473684210526	887.653846153846	10
960.833333333333	1042	12
900.15	1044.75862068966	2
821.333333333333	900.952380952381	22
807	413	64
938.5	945.033333333333	0
781.8	988.259259259259	6
833.95	975.51724137931	2
828.25	870.931034482759	2
1008.68421052632	1014.21428571429	6
879.25	938.413793103448	2
1073.35294117647	1166.24	12
934.375	1142.7	60
1027.26315789474	1073.18518518519	8
825.722222222222	995.846153846154	10
1005.5	977.807692307692	8
976.473684210526	963.357142857143	4
1016.125	1004.73076923077	16
1012.22222222222	1120.03703703704	6
616.35	740.181818181818	16
1102.22222222222	1232.75862068966	6
888.5	872.607142857143	4
809.75	914.607142857143	4
972.263157894737	1034.32142857143	4
1075.44444444444	1094.53846153846	8
819.65	957.928571428571	4
759.35	814.875	10
972.636363636364	1320.22222222222	60
869.9	1033.48148148148	6
1124.2	1060.84615384615	40
858.578947368421	882.333333333333	8
1146.92857142857	1191.38888888889	28
1117.55555555556	1147.31578947368	40
1080.9	1066.03846153846	2
965.263157894737	1047.32142857143	4
825.105263157895	901.074074074074	8
818.736842105263	916.64	8
1036	1114	6
827.789473684211	990.785714285714	4
1129.68421052632	1088.62068965517	0
896.45	1058.5	12
1059.3	1092.4	10
1232.125	1276.29411764706	32
1080.625	1186.88461538462	16
963.1	1056.80769230769	8
949.6	1047.4347826087	14
1030.45	1025.92857142857	2
838.45	854.321428571429	4
839.789473684211	855.333333333333	2
862.8	752.785714285714	58
946.526315789474	1058.65517241379	2
756.764705882353	926.695652173913	10
924.105263157895	1042.5	4
1101.23529411765	1292.47058823529	28
753.157894736842	799.44	12
890	934.758620689655	2
742.611111111111	825.222222222222	10
832.789473684211	908.214285714286	4
1104.42105263158	1146.82142857143	6
1117.47368421053	1079.72727272727	12
949.789473684211	1154	2
1047.15	1040.1	0
1033.16666666667	1020.78571428571	6
779.55	908.48275862069	2
1176.05555555556	1255.5652173913	12
841	1079.16	14
1020.05263157895	1015.68965517241	4
835.6875	1075.95454545455	20
920.333333333333	1062.39130434783	20
863.111111111111	901.185185185185	10
844.6875	969.714285714286	18
957.5	1001.92307692308	8
989.1	1113.29166666667	12
849.684210526316	1052.68	8
1013.33333333333	1052.26086956522	18
1127.10526315789	1139.21739130435	10
1215.08333333333	1212.11111111111	54
955.888888888889	1011.95833333333	12
860.882352941176	1032.41666666667	16
892.5	1028.28571428571	2
956.2	1036.85714285714	2
715.533333333333	906	46
1123.36363636364	NA	72
729.55	868.178571428571	4
826.75	881.653846153846	8
973.833333333333	917.857142857143	46
1071.78947368421	1155.27586206897	2
850.473684210526	998.444444444444	8
889.722222222222	923.272727272727	18
618.666666666667	528	64
764.5	910.666666666667	62
964.421052631579	936.869565217391	14
960.588235294118	929.52380952381	22
1247	1238.77777777778	62
998.894736842105	1082.85185185185	6
992.8	1006.06896551724	2
1118.6	NA	80
843.105263157895	804.423076923077	10
1059.77777777778	1094.60714285714	6
937.368421052632	981.321428571429	6
754.25	882.32	10
1218	1080.12	8
939.333333333333	1054.11538461538	8
1065.05882352941	1162.2	12
760.9375	NA	68
810.315789473684	995.6	12
966.5	1274.11111111111	64
682.9	765.344827586207	2
700.526315789474	895.307692307692	8
1033.85	1113.52380952381	16
901.263157894737	927.291666666667	14
1120	1127.78260869565	24
880.2	943.666666666667	12
840.55	845.592592592593	6
949.8125	NA	64
1028.85	1086.7037037037	4
876.368421052632	964.48	12
998.368421052632	1036.07407407407	8
967.125	1016.53571428571	8
1097.16666666667	1131.57142857143	6
916.722222222222	991.913043478261	18
871	1033.10344827586	2
802.368421052632	890.791666666667	14
912.315789473684	1015.48148148148	8
862.777777777778	908.296296296296	10
895.9	901.172413793103	2
808.684210526316	909.827586206897	2
847.823529411765	1012.69565217391	20
846.285714285714	952	70
1038.21428571429	1138.64285714286	12
772.263157894737	921.16	12
913.473684210526	1035	12
960.157894736842	1033.51851851852	8
799.631578947368	877.379310344828	4
823.8	933.538461538462	8
690.157894736842	879	6
874.25	1041	12
954.705882352941	1037.52173913043	20
801.368421052632	879.107142857143	6
743.352941176471	972.863636363636	20
962.1	955.166666666667	0
887.8	923.777777777778	4
785.210526315789	935.379310344828	4
968.15	1025.31034482759	2
795.45	910.652173913043	14
779.222222222222	871.4	14
1032.05882352941	1119.66666666667	12
702.647058823529	908.307692307692	14
764.214285714286	465.5	64
769.157894736842	804.5	28
889.473684210526	995.346153846154	10
976.842105263158	1105.37931034483	4
807.368421052632	893.884615384615	8
867.5	578.333333333333	74
1159.85714285714	1088.57142857143	56
961.277777777778	923.769230769231	12
909.75	1052.26666666667	0
954.611111111111	1005.80769230769	12
829.473684210526	915.321428571429	6
866.777777777778	951.333333333333	56
746	806.703703703704	8
1338.29411764706	1201.55555555556	26
867.444444444444	961.333333333333	16
812.4	882.689655172414	2
809.25	980.555555555556	6
995.058823529412	958.409090909091	22
973.95	1056.79310344828	2
878.25	942.608695652174	12
912.105263157895	979.148148148148	8
975.631578947368	1080.53571428571	6
881.55	985.444444444444	6
849.157894736842	NA	60
802.736842105263	797.071428571429	6
736.166666666667	836.137931034483	4
907.6	910.666666666667	14
1038.47368421053	1157.92307692308	8
770	884.259259259259	4
861.157894736842	1058.85185185185	6
889.2	920.758620689655	2
993.315789473684	1060.5	8
723.35	824.1	0
909.333333333333	1278.14285714286	68
942.533333333333	927.96	20
989.705882352941	1036.76	10
844.166666666667	888.363636363636	18
756.55	804	2
1073.52631578947	1229.11111111111	8
907.8	1007.2	10
916	980.869565217391	20
1082.11111111111	1098.72413793103	6
735.55	916.178571428571	4
861.473684210526	1018.2	2
1006.86666666667	1146.625	32
866.142857142857	1052.125	68
734.75	810.48	10
981	1034.66666666667	26
929.526315789474	1004.46428571429	6
789.2	866.413793103448	2
831.4	930.25	4
1032.85714285714	1037.375	68
1335.84615384615	1436.86666666667	38
998.944444444444	1043.77777777778	8
899.375	1079	20
844.842105263158	1005.77777777778	8
656.05	782.416666666667	12
769.526315789474	826.827586206897	2
895.157894736842	979.655172413793	2
814.2	985.190476190476	24
813.733333333333	284	64
896.157894736842	1037.33333333333	20
678.631578947368	832.142857142857	6
836.444444444444	1110.03571428571	8
823.933333333333	1114.05	28
924.210526315789	882.392857142857	4
618.263157894737	689.923076923077	8
670.631578947368	852.518518518518	8
842.5	919.807692307692	8
859.947368421053	1027.10344827586	4
798.647058823529	797.260869565217	20
1153.6	1390.77777777778	34
734.222222222222	852.130434782609	18
773.428571428571	844.769230769231	20
829.631578947368	635	60
917.947368421053	978.576923076923	10
986.105263157895	1225.21428571429	6
789.3	929.576923076923	8
1115	1107.73684210526	32
842.65	955.586206896552	2
987.052631578947	950.9	2
1111.11111111111	1095.92	12
791.05	898.269230769231	6
917.3	971.464285714286	4
966.526315789474	942.962962962963	8
1016	1008.125	12
797.85	883.260869565217	14
960.947368421053	1041	4
893.315789473684	960.148148148148	8
915.684210526316	1121.26923076923	10
1031.82352941176	1007.41379310345	6
803.15	866.178571428571	4
884.235294117647	939.777777777778	12
777	1230.5	68
1080.17647058824	963.833333333333	4
875.315789473684	942.214285714286	6
844.95	891.148148148148	6
858.789473684211	888.433333333333	2
824.315789473684	933.962962962963	8
803.45	890.107142857143	4
1026.1875	948.952380952381	26
1132.42105263158	1175.91304347826	14
819.5	792.285714285714	66
1112.57894736842	1031.34482758621	4
761.833333333333	837.166666666667	16
797.111111111111	897.714285714286	8
823.5	884.304347826087	14
912.6875	1072	20
982	771.555555555556	74
850.55	917.92	10
1141.82352941176	1124.41666666667	14
899.444444444444	954.964285714286	8
913.833333333333	1072.35714285714	8
1002.63157894737	950.333333333333	2
927.8	1082.66666666667	12
885.3	871.928571428571	4
851.578947368421	928.75	6
897.95	1025.85185185185	6
830.85	1051.21428571429	4
1064.45454545455	1224.42105263158	34
971.526315789474	1052.55555555556	6
743.611111111111	890.25	8
1036.15789473684	1137.60869565217	12
775.947368421053	948.260869565217	14
716.8125	914.944444444444	26
959.842105263158	1091.48148148148	8
1138.42105263158	1215.44444444444	8
966.578947368421	1035.53846153846	8
796.470588235294	834.625	18
655.65	762.75	12
764.764705882353	1005.28571428571	24
1105.07142857143	1070.20689655172	6
766.8	940.04347826087	12
1015.94736842105	1091.04	8
788.764705882353	809.777777777778	12
956.166666666667	982.321428571429	8
834.777777777778	950.933333333333	2
799.526315789474	807.076923076923	10
816.6875	999.173913043478	22
941.333333333333	986.821428571429	6
669.052631578947	829.391304347826	16
1006.58823529412	NA	66
904.611111111111	1112.95238095238	14
993.263157894737	1073.56	10
825.894736842105	940.1	22
760.526315789474	849.962962962963	8
951.6	1074.60714285714	4
765.894736842105	907.678571428571	6
1041.35294117647	994.411764705882	24
1072.25	1162.1	62
863.352941176471	871.954545454545	22
901.578947368421	915.896551724138	4
674.842105263158	792.5625	30
935.888888888889	906.222222222222	8
839.75	932.607142857143	4
778.941176470588	979.740740740741	10
1054.85	1144.15384615385	4
820.45	900.444444444444	6
849.933333333333	917.407407407407	14
882.210526315789	986.8	2
991.222222222222	1056.22222222222	6
877.25	965.793103448276	2
822.1	859.115384615385	8
803.052631578947	NA	62
818.35	993.896551724138	0
1101.89473684211	1100.26923076923	4
767.736842105263	934.269230769231	10
891.941176470588	917.428571428571	10
923.45	1008.59259259259	6
793.764705882353	875.807692307692	14
NA	1473.6	90
839.5	961.333333333333	6
699	1186.85714285714	76
851.210526315789	997.833333333333	12
958.157894736842	899.15	20
961.15	933.733333333333	0
920.894736842105	984.766666666667	2
791.95	869.846153846154	8
763.263157894737	878.310344827586	2
1208.94117647059	1251.11764705882	26
720.210526315789	850.304347826087	16
843	1045.28	14
881.625	1131.75862068966	6
922.941176470588	952.115384615385	14
994.157894736842	1032.76923076923	10
763.8	914.740740740741	6
684.65	790.615384615385	8
991.882352941176	1123.92307692308	8
656.75	713.892857142857	4
948.8	989.115384615385	10
664.4	775	0
768.05	857.75	4
1044.6	944.357142857143	4
1181.1	1226.30769230769	52
816.941176470588	870.833333333333	18
913.666666666667	957.095238095238	20
820.473684210526	1008.65217391304	16
964.9	992.851851851852	6
815.55	986.103448275862	2
912.25	918.344827586207	2
1065.33333333333	1056.5	80
877.736842105263	1118.12	10
845	927.115384615385	8
795.684210526316	742.130434782609	16
1040.1	1213.92857142857	4
812.9	908.68	10
843.842105263158	965.461538461538	10
870.352941176471	996.875	16
634.1	760.888888888889	50
1015.88888888889	954.888888888889	10
939.176470588235	991.6	14
914.6	1154.44444444444	6
858.789473684211	991.772727272727	18
1048.31578947368	1051.07142857143	4
999.882352941176	1062.55	24
733.736842105263	916.714285714286	4
953.9	1047.44444444444	6
784.388888888889	920.607142857143	8
955.210526315789	974.178571428571	6
860.05	966.928571428571	4
619.611111111111	639.692307692308	12
842.45	939.777777777778	6
875	558	96
790.333333333333	782.8	82
879.85	953.333333333333	6
1055.15	1100.06896551724	0
1035.05263157895	1170	6
945.2	934.551724137931	2
779.583333333333	926.565217391304	30
878.6	959.928571428571	4
873.75	932.142857142857	4
870.777777777778	997.962962962963	10
943.647058823529	918.36	14
1113.94736842105	1024	8
833.684210526316	890.785714285714	6
611.666666666667	723.625	16
708.05	888.416666666667	12
959.05	1093.24	10
876.642857142857	1112.83333333333	36
942	1023.64	10
833.294117647059	946.111111111111	10
1075.8	820.8	76
784.6875	770.666666666667	26
878.055555555556	945.44	12
1158.81818181818	1385.1875	40
813.2	932.083333333333	10
862.947368421053	898.95	20
918.947368421053	941.958333333333	12
783.611111111111	917.851851851852	10
720	903.1	24
1046.22222222222	957.75	6
833.9	932.2	10
936.25	1006.35714285714	46
1032.1875	1011.85714285714	24
883.842105263158	915	8
810.333333333333	1030.06666666667	40
929.7	1036.58620689655	0
793.85	895.535714285714	4
746.95	837.928571428571	4
937.105263157895	963.793103448276	4
805.052631578947	925.034482758621	4
1113	967.592592592593	10
907.1	1025.07407407407	6
840.944444444444	925.92	14
699.235294117647	760.142857142857	24
884	992.076923076923	10
804.95	947.366666666667	0
878.888888888889	1000.24	12
960.3	1191.48275862069	2
1066.11111111111	1071.53846153846	10
1022.38888888889	1031.41666666667	14
1070.44444444444	1118.2	22
824.529411764706	1004.26086956522	18
898.85	915.736842105263	22
873.3	921.896551724138	0
1216.61111111111	1216.60869565217	10
673.1	843.115384615385	6
806.75	796.928571428571	4
778.842105263158	810.56	12
760.75	874.307692307692	8
789.263157894737	874.076923076923	8
855.789473684211	1022	22
661	772.961538461538	14
817.894736842105	889.931034482759	4
759.421052631579	829.785714285714	6
931.9375	1072.74074074074	12
844.3	858.379310344828	2
821.736842105263	819.866666666667	2
764.052631578947	789.379310344828	4
579.65	762.923076923077	8
499.5	594.625	68
682.7	715.571428571429	18
1028.57894736842	1043.21428571429	6
758.8	917.642857142857	4
936.894736842105	1102.03846153846	6
599.444444444444	631.666666666667	28
768.941176470588	1052.2	16
871.526315789474	1067.31034482759	4
1169.76470588235	1103.13043478261	20
666.421052631579	755.041666666667	14
850.5	1022.04347826087	18
1012.82352941176	1049.58333333333	18
1117.27777777778	1139.22222222222	8
1142.11764705882	1042.37037037037	8
1020.63636363636	923.4	48
859.789473684211	928.333333333333	2
734.45	863.913043478261	14
671.842105263158	745.172413793103	4
996.277777777778	1061.14285714286	4
856.277777777778	935.346153846154	12
859.631578947368	916.769230769231	8
959.210526315789	1042.8	12
938.25	977.538461538462	8
894.65	891.782608695652	14
870.1	931.448275862069	2
834.8	969.551724137931	2
935.555555555556	962.384615384615	12
736.1	798.965517241379	2
910.368421052632	1023.25	4
733.157894736842	813.074074074074	8
1054.5	1251.45833333333	14
1059.63157894737	1083	6
911	956.137931034483	2
791.95	855.851851851852	6
803.6	824	4
943.857142857143	896.818181818182	62
844.789473684211	899.620689655172	4
979	1195	24
787.9	914.785714285714	4
979.315789473684	936.28	10
1040.16666666667	985.64	10
702.117647058824	851.62962962963	12
1035.85	1105.69230769231	6
885	985.633333333333	0
730.736842105263	877.961538461538	10
655.444444444444	826.47619047619	22
1013.83333333333	1058	74
715.85	804.428571428571	4
962.842105263158	1087.4	10
1105.13333333333	1204.47368421053	22
905.166666666667	881.586206896552	4
850.894736842105	931.148148148148	8
949.7	1008.82142857143	4
846.6	932.076923076923	8
788.833333333333	914.36	12
1020.85	1089.75	4
704.55	796.833333333333	12
957.25	1157.03448275862	2
632.157894736842	751.928571428571	6
684.894736842105	884.8	12
936.578947368421	1069.78571428571	4
943.315789473684	1069.42307692308	8
1067.85714285714	1199.89473684211	26
685.7	856.642857142857	4
922.875	1319.66666666667	74
614.578947368421	707.95652173913	16
772.842105263158	776.620689655172	4
707.55	829.64	10
941.75	985.48275862069	2
1099.41176470588	1086.33333333333	14
755.631578947368	868.1	2
1138.14285714286	1209.14285714286	30
993.111111111111	1037.08695652174	12
1116.29411764706	1112.41666666667	12
952.736842105263	1015.41379310345	2
1008	1087.91666666667	16
915.411764705882	978.045454545455	22
953.055555555556	988.827586206897	6
805.466666666667	870.12	14
946.222222222222	931.592592592593	10
749.666666666667	744.32	12
854.166666666667	976.913043478261	14
1100.0625	NA	68
968.777777777778	1003.66666666667	10
785.1	798.620689655172	2
812.875	836	66
1103.6	1087.43333333333	0
776.85	893.266666666667	0
920.111111111111	1001.59259259259	10
1128.63157894737	1139.5	6
924.8	872.551724137931	0
1012.61111111111	1076	10
594.857142857143	631.2	58
787.222222222222	873.260869565217	18
992.111111111111	895.916666666667	16
806.6	900.814814814815	6
883.052631578947	864.076923076923	8
1108.36842105263	1245.60869565217	16
840.263157894737	825.466666666667	2
1087.25	1237	82
739.444444444444	769.379310344828	6
941.473684210526	1042.96428571429	4
991.947368421053	1087.8	12
785.6	704.5	76
859.75	1110.25	34
873.25	998.896551724138	2
851.4	906.464285714286	4
1046.36842105263	1071.03448275862	4
760.210526315789	822.740740740741	6
813.75	803.5	8
629.166666666667	980.166666666667	14
970.9	975.576923076923	8
960.473684210526	1062.42307692308	6
661.235294117647	796.4	26
800.1875	883.5	20
789.529411764706	827.035714285714	10
935.333333333333	1043.32142857143	4
787.611111111111	922.894736842105	26
938.85	988.793103448276	2
728.736842105263	808.133333333333	2
805.55	905.44	10
1118.89473684211	1257.90909090909	36
795.65	807.56	10
889.263157894737	941.357142857143	4
852.5	979.035714285714	8
881.529411764706	1053.40740740741	10
1017.61111111111	1030.375	16
982.368421052632	1155.2	38
1026.55555555556	1147	34
892.3	1006.44444444444	6
811.277777777778	950	14
